Creates an ANOVA table in APA style based output of ezANOVA command from ez package — apa.ezANOVA.table • apaTables
…
drink_attitude_long <- separate(data = drink_attitude_long,
                                col = cell, into = c("drink","imagery"),
                                sep = "_", remove = TRUE)

drink_attitude_long$drink <- as_factor(drink_attitude_long$drink)
drink_attitude_long$imagery <- as_factor(drink_attitude_long$imagery)

# See new long format of data, where one row is one OBSERVATION.
# As well, notice that we have two columns (drink, imagery)
# drink, imagery, and participant are factors
print(drink_attitude_long)
#> # A tibble: 180 x 4
#>    participant drink imagery  attitude
#>    <fct>       <fct> <fct>       <int>
#>  1 P1          beer  positive        1
#>  2 P2          beer  positive       43
#>  3 P3          beer  positive       15
#>  4 P4          beer  positive       40
#>  5 P5          beer  positive        8
#>  6 P6          beer  positive       17
#>  7 P7          beer  positive       30
#>  8 P8          beer  positive       34
#>  9 P9          beer  positive       34
#> 10 P10         beer  positive       26
#> # ... with 170 more rows
…
dating_long <- separate(data = dating_long,
                       col = cell, into = c("looks","personality"),
                       sep = "_", remove = TRUE)

dating_long$looks <- as_factor(dating_long$looks)
dating_long$personality <- as_factor(dating_long$personality)

# See new long format of data, where one row is one OBSERVATION.
# As well, notice that we have two columns (looks, personality)
# looks, personality, and participant are factors

print(dating_long)
#> # A tibble: 180 x 5
#>    participant gender looks      personality date_rating
#>    <fct>       <fct>  <fct>      <fct>             <int>
#>  1 P01         Male   attractive high                 86
#>  2 P02         Male   attractive high                 91
#>  3 P03         Male   attractive high                 89
#>  4 P04         Male   attractive high                 89
#>  5 P05         Male   attractive high                 80
#>  6 P06         Male   attractive high                 80
#>  7 P07         Male   attractive high                 89
#>  8 P08         Male   attractive high                100
#>  9 P09         Male   attractive high                 90
#> 10 P10         Male   attractive high                 89
#> # ... with 170 more rows
…
